;
; BIND data file for local loopback interface
;
$TTL	604800
@	IN	SOA	ns1.practicadaw.net. jose.practicadaw. (
			      2		; Serial
			 604800		; Refresh
			  86400		; Retry
			2419200		; Expire
			 604800 )	; Negative Cache TTL
;
@	IN	NS	ns1.practicadaw.net.
51	IN	PTR	ns1.practicadaw.net.
2	IN	PTR	pedro.practicadaw.net.
3	IN	PTR	juan.practicadaw.net.
6	IN	PTR	correo.practicadaw.net.
4   IN  PTR manuel.practicadaw.net.
5   IN  PTR ana.practicadaw.net.
@	IN	MX	1    correo.practicadaw.net.
@	IN	MX	1    pedro.practicadaw.net.   


